<?xml version="1.0" encoding="UTF-8" standalone="no"?>
<!-- Created with Inkscape (http://www.inkscape.org/) -->
<svg xmlns:dc="http://purl.org/dc/elements/1.1/" xmlns:cc="http://creativecommons.org/ns#" xmlns:rdf="http://www.w3.org/1999/02/22-rdf-syntax-ns#" xmlns:svg="http://www.w3.org/2000/svg" xmlns="http://www.w3.org/2000/svg" xmlns:sodipodi="http://sodipodi.sourceforge.net/DTD/sodipodi-0.dtd" xmlns:inkscape="http://www.inkscape.org/namespaces/inkscape" width="241.764mm" height="67.2131mm" viewBox="0 0 241.764 67.2131" version="1.1" id="svg6635" inkscape:version="0.92.1 r15371" sodipodi:docname="dc19p2.svg">
  <defs id="defs6629"/>
  <sodipodi:namedview id="base" pagecolor="#ffffff" bordercolor="#666666" borderopacity="1.0" inkscape:pageopacity="0.0" inkscape:pageshadow="2" inkscape:zoom="1" inkscape:cx="557.446" inkscape:cy="70.4935" inkscape:document-units="mm" inkscape:current-layer="layer1" showgrid="false" inkscape:snap-global="false" inkscape:window-width="1920" inkscape:window-height="1016" inkscape:window-x="0" inkscape:window-y="27" inkscape:window-maximized="1" fit-margin-top="0" fit-margin-left="0" fit-margin-right="0" fit-margin-bottom="0"/>
  <metadata id="metadata6632">
    <rdf:RDF>
      <cc:Work rdf:about="">
        <dc:format>image/svg+xml</dc:format>
        <dc:type rdf:resource="http://purl.org/dc/dcmitype/StillImage"/>
        <dc:title/>
      </cc:Work>
    </rdf:RDF>
  </metadata>
  <g inkscape:label="Camada 1" inkscape:groupmode="layer" id="layer1" transform="translate(-28.9576,-163.342)">
    <path inkscape:connector-curvature="0" id="path7665" style="font-style:normal;font-variant:normal;font-weight:bold;font-stretch:normal;font-size:38.019257px;line-height:1.25;font-family:'Exo 2';-inkscape-font-specification:'Exo 2, Bold';font-variant-ligatures:normal;font-variant-caps:normal;font-variant-numeric:normal;font-feature-settings:normal;text-align:start;letter-spacing:-2.495012px;word-spacing:0px;writing-mode:lr-tb;text-anchor:start;opacity:1;vector-effect:none;fill:#4e9a06;fill-opacity:1;stroke:none;stroke-width:0.313177;stroke-linecap:butt;stroke-linejoin:miter;stroke-miterlimit:4;stroke-dasharray:none;stroke-dashoffset:0;stroke-opacity:1" d="m 55.76,202.12 v -27.679 q 5.6956,-0.361 10.7507,-0.361 6.6185,0 9.1865,3.048 2.6078,3.048 2.6078,11.151 0,8.104 -2.6078,11.153 -2.568,3.048 -9.1865,3.048 -5.0551,0 -10.7507,-0.36 z m 6.0972,-23.226 v 18.733 q 0.6827,0 2.2051,0.04 1.5655,0 2.4484,0 3.088,0 4.2121,-1.966 1.1629,-1.965 1.1629,-7.421 0,-5.456 -1.1629,-7.422 -1.1241,-2.005 -4.2121,-2.005 z"/>
    <path inkscape:connector-curvature="0" id="path7667" style="font-style:normal;font-variant:normal;font-weight:bold;font-stretch:normal;font-size:38.019257px;line-height:1.25;font-family:'Exo 2';-inkscape-font-specification:'Exo 2, Bold';font-variant-ligatures:normal;font-variant-caps:normal;font-variant-numeric:normal;font-feature-settings:normal;text-align:start;letter-spacing:-2.495012px;word-spacing:0px;writing-mode:lr-tb;text-anchor:start;opacity:1;vector-effect:none;fill:#4e9a06;fill-opacity:1;stroke:none;stroke-width:0.313177;stroke-linecap:butt;stroke-linejoin:miter;stroke-miterlimit:4;stroke-dasharray:none;stroke-dashoffset:0;stroke-opacity:1" d="m 92.6273,194.217 h -7.1396 q 0.281,2.166 1.2834,2.928 1.0433,0.723 3.4099,0.723 3.1687,0 7.3797,-0.442 l 0.5632,3.691 q -3.0891,1.484 -8.6244,1.484 -5.5763,0 -7.9429,-2.407 -2.3666,-2.407 -2.3666,-7.942 0,-5.818 2.2869,-8.145 2.3257,-2.326 7.7814,-2.326 4.9345,0 7.1407,1.725 2.2061,1.686 2.246,5.175 0,2.768 -1.4439,4.172 -1.404,1.364 -4.5738,1.364 z m -7.2592,-3.572 h 5.6151 q 1.0831,0 1.4438,-0.52 0.4005,-0.521 0.4005,-1.523 0,-1.406 -0.7213,-1.927 -0.7225,-0.562 -2.6477,-0.562 -2.2869,0 -3.1289,0.924 -0.8419,0.882 -0.9615,3.608 z"/>
    <path inkscape:connector-curvature="0" id="path7669" style="font-style:normal;font-variant:normal;font-weight:bold;font-stretch:normal;font-size:38.019257px;line-height:1.25;font-family:'Exo 2';-inkscape-font-specification:'Exo 2, Bold';font-variant-ligatures:normal;font-variant-caps:normal;font-variant-numeric:normal;font-feature-settings:normal;text-align:start;letter-spacing:-2.495012px;word-spacing:0px;writing-mode:lr-tb;text-anchor:start;opacity:1;vector-effect:none;fill:#4e9a06;fill-opacity:1;stroke:none;stroke-width:0.313177;stroke-linecap:butt;stroke-linejoin:miter;stroke-miterlimit:4;stroke-dasharray:none;stroke-dashoffset:0;stroke-opacity:1" d="m 105.782,174.039 v 6.299 q 0,2.767 -0.522,4.652 3.13,-3.209 7.02,-3.209 3.851,0 5.536,2.406 1.725,2.368 1.725,7.863 0,5.095 -2.087,7.823 -2.085,2.728 -7.58,2.728 -2.407,0 -5.415,-0.402 -2.969,-0.4 -4.6544,-1.122 v -27.038 z m -0.04,14.16 v 9.629 q 2.047,0.44 4.012,0.359 2.046,-0.09 2.849,-1.364 0.842,-1.282 0.842,-4.733 0,-3.288 -0.682,-4.411 -0.683,-1.164 -2.848,-1.164 -1.644,0 -4.173,1.684 z"/>
    <path inkscape:connector-curvature="0" id="path7673" style="font-style:normal;font-variant:normal;font-weight:bold;font-stretch:normal;font-size:38.019257px;line-height:1.25;font-family:'Exo 2';-inkscape-font-specification:'Exo 2, Bold';font-variant-ligatures:normal;font-variant-caps:normal;font-variant-numeric:normal;font-feature-settings:normal;text-align:start;letter-spacing:-2.495012px;word-spacing:0px;writing-mode:lr-tb;text-anchor:start;opacity:1;vector-effect:none;fill:#1086a5;fill-opacity:1;stroke:none;stroke-width:0.313177;stroke-linecap:butt;stroke-linejoin:miter;stroke-miterlimit:4;stroke-dasharray:none;stroke-dashoffset:0;stroke-opacity:1" d="m 151.211,181.781 q 5.534,0 7.821,2.406 2.327,2.368 2.327,8.065 0,5.695 -2.327,8.062 -2.287,2.327 -7.821,2.327 -5.576,0 -7.903,-2.327 -2.287,-2.367 -2.287,-8.062 0,-5.737 2.287,-8.105 2.327,-2.366 7.903,-2.366 z m 0,4.453 q -2.367,0 -3.17,1.204 -0.802,1.203 -0.802,4.814 0,3.529 0.802,4.734 0.803,1.201 3.17,1.201 2.286,0 3.088,-1.201 0.842,-1.205 0.842,-4.734 0,-3.571 -0.802,-4.775 -0.802,-1.243 -3.128,-1.243 z"/>
    <path inkscape:connector-curvature="0" id="path7675" style="font-style:normal;font-variant:normal;font-weight:bold;font-stretch:normal;font-size:38.019257px;line-height:1.25;font-family:'Exo 2';-inkscape-font-specification:'Exo 2, Bold';font-variant-ligatures:normal;font-variant-caps:normal;font-variant-numeric:normal;font-feature-settings:normal;text-align:start;letter-spacing:-2.495012px;word-spacing:0px;writing-mode:lr-tb;text-anchor:start;opacity:1;vector-effect:none;fill:#1086a5;fill-opacity:1;stroke:none;stroke-width:0.313177;stroke-linecap:butt;stroke-linejoin:miter;stroke-miterlimit:4;stroke-dasharray:none;stroke-dashoffset:0;stroke-opacity:1" d="m 167.629,182.344 0.44,2.927 q 4.293,-3.49 8.464,-3.49 2.688,0 4.092,1.405 1.443,1.404 1.443,4.091 v 14.843 h -5.897 v -12.997 q 0,-1.325 -0.441,-1.806 -0.401,-0.521 -1.484,-0.521 -1.884,0 -5.495,1.806 v 13.518 h -5.938 v -19.776 z"/>
    <path inkscape:connector-curvature="0" id="path7677" style="font-style:normal;font-variant:normal;font-weight:bold;font-stretch:normal;font-size:38.019257px;line-height:1.25;font-family:'Exo 2';-inkscape-font-specification:'Exo 2, Bold';font-variant-ligatures:normal;font-variant-caps:normal;font-variant-numeric:normal;font-feature-settings:normal;text-align:start;letter-spacing:-2.495012px;word-spacing:0px;writing-mode:lr-tb;text-anchor:start;opacity:1;vector-effect:none;fill:#1086a5;fill-opacity:1;stroke:none;stroke-width:0.313177;stroke-linecap:butt;stroke-linejoin:miter;stroke-miterlimit:4;stroke-dasharray:none;stroke-dashoffset:0;stroke-opacity:1" d="m 198.355,177.57 h -3.731 q -1.485,0 -2.087,0.561 -0.56,0.562 -0.56,2.006 v 2.207 h 5.454 v 3.97 h -5.454 V 202.12 H 186 v -15.806 h -3.45 v -3.77 l 3.45,-0.2 v -3.01 q 0,-6.097 6.497,-6.097 4.214,0 6.419,0.401 z"/>
    <g aria-label="Curitiba, Brazil" style="font-style:normal;font-variant:normal;font-weight:300;font-stretch:normal;font-size:11.634645px;line-height:1.25;font-family:'Exo 2';-inkscape-font-specification:'Exo 2, Light';font-variant-ligatures:normal;font-variant-position:normal;font-variant-caps:normal;font-variant-numeric:normal;font-variant-alternates:normal;font-feature-settings:normal;text-indent:0;text-align:start;text-decoration:none;text-decoration-line:none;text-decoration-style:solid;text-decoration-color:#000000;letter-spacing:0px;word-spacing:0px;text-transform:none;writing-mode:lr-tb;direction:ltr;text-orientation:mixed;dominant-baseline:auto;baseline-shift:baseline;text-anchor:start;white-space:normal;shape-padding:0;opacity:1;vector-effect:none;fill:#cc0101;fill-opacity:1;stroke:none;stroke-width:0.040519;stroke-linecap:butt;stroke-linejoin:miter;stroke-miterlimit:4;stroke-dasharray:none;stroke-dashoffset:0;stroke-opacity:1" id="text7618" transform="matrix(0.883213,0,0,0.883213,-32.2397,21.6501)">
      <path d="m 104.184,218.116 0.09,0.57 q -0.908,0.245 -2.304,0.245 -1.699,0 -2.3852,-0.931 -0.6865,-0.931 -0.6865,-3.223 0,-2.292 0.6865,-3.223 0.6862,-0.931 2.3852,-0.931 1.268,0 2.141,0.222 l -0.09,0.57 q -0.885,-0.105 -2.048,-0.105 -1.28,0 -1.78,0.756 -0.5005,0.756 -0.5005,2.711 0,1.955 0.5005,2.711 0.5,0.756 1.78,0.756 1.326,0 2.21,-0.128 z" style="font-style:normal;font-variant:normal;font-weight:300;font-stretch:normal;font-size:11.634645px;line-height:1.25;font-family:'Exo 2';-inkscape-font-specification:'Exo 2, Light';font-variant-ligatures:normal;font-variant-position:normal;font-variant-caps:normal;font-variant-numeric:normal;font-variant-alternates:normal;font-feature-settings:normal;text-indent:0;text-align:start;text-decoration:none;text-decoration-line:none;text-decoration-style:solid;text-decoration-color:#000000;letter-spacing:0px;word-spacing:0px;text-transform:none;writing-mode:lr-tb;direction:ltr;text-orientation:mixed;dominant-baseline:auto;text-anchor:start;white-space:normal;shape-padding:0;vector-effect:none;fill:#cc0101;fill-opacity:1;stroke:none;stroke-width:0.040519;stroke-linecap:butt;stroke-linejoin:miter;stroke-miterlimit:4;stroke-dasharray:none;stroke-dashoffset:0;stroke-opacity:1" id="path7924" inkscape:connector-curvature="0"/>
      <path d="m 110.321,213.16 v 5.631 h -0.582 l -0.06,-0.884 q -1.303,1.024 -2.502,1.024 -1.524,0 -1.524,-1.536 v -4.235 h 0.733 v 4.037 q 0,0.582 0.244,0.838 0.245,0.256 0.792,0.256 0.477,0 0.954,-0.21 0.477,-0.221 1.21,-0.721 v -4.2 z" style="font-style:normal;font-variant:normal;font-weight:300;font-stretch:normal;font-size:11.634645px;line-height:1.25;font-family:'Exo 2';-inkscape-font-specification:'Exo 2, Light';font-variant-ligatures:normal;font-variant-position:normal;font-variant-caps:normal;font-variant-numeric:normal;font-variant-alternates:normal;font-feature-settings:normal;text-indent:0;text-align:start;text-decoration:none;text-decoration-line:none;text-decoration-style:solid;text-decoration-color:#000000;letter-spacing:0px;word-spacing:0px;text-transform:none;writing-mode:lr-tb;direction:ltr;text-orientation:mixed;dominant-baseline:auto;text-anchor:start;white-space:normal;shape-padding:0;vector-effect:none;fill:#cc0101;fill-opacity:1;stroke:none;stroke-width:0.040519;stroke-linecap:butt;stroke-linejoin:miter;stroke-miterlimit:4;stroke-dasharray:none;stroke-dashoffset:0;stroke-opacity:1" id="path7926" inkscape:connector-curvature="0"/>
      <path d="m 115.666,213.009 -0.09,0.698 h -0.28 q -0.488,0 -0.989,0.209 -0.5,0.198 -1.279,0.663 v 4.212 h -0.745 v -5.631 h 0.57 l 0.08,0.931 q 1.384,-1.082 2.489,-1.082 z" style="font-style:normal;font-variant:normal;font-weight:300;font-stretch:normal;font-size:11.634645px;line-height:1.25;font-family:'Exo 2';-inkscape-font-specification:'Exo 2, Light';font-variant-ligatures:normal;font-variant-position:normal;font-variant-caps:normal;font-variant-numeric:normal;font-variant-alternates:normal;font-feature-settings:normal;text-indent:0;text-align:start;text-decoration:none;text-decoration-line:none;text-decoration-style:solid;text-decoration-color:#000000;letter-spacing:0px;word-spacing:0px;text-transform:none;writing-mode:lr-tb;direction:ltr;text-orientation:mixed;dominant-baseline:auto;text-anchor:start;white-space:normal;shape-padding:0;vector-effect:none;fill:#cc0101;fill-opacity:1;stroke:none;stroke-width:0.040519;stroke-linecap:butt;stroke-linejoin:miter;stroke-miterlimit:4;stroke-dasharray:none;stroke-dashoffset:0;stroke-opacity:1" id="path7928" inkscape:connector-curvature="0"/>
      <path d="m 117.115,210.786 h 0.337 q 0.244,0 0.244,0.245 v 0.675 q 0,0.244 -0.244,0.244 h -0.337 q -0.245,0 -0.245,-0.244 v -0.675 q 0,-0.245 0.245,-0.245 z m 0.535,8.005 h -0.733 v -5.631 h 0.733 z" style="font-style:normal;font-variant:normal;font-weight:300;font-stretch:normal;font-size:11.634645px;line-height:1.25;font-family:'Exo 2';-inkscape-font-specification:'Exo 2, Light';font-variant-ligatures:normal;font-variant-position:normal;font-variant-caps:normal;font-variant-numeric:normal;font-variant-alternates:normal;font-feature-settings:normal;text-indent:0;text-align:start;text-decoration:none;text-decoration-line:none;text-decoration-style:solid;text-decoration-color:#000000;letter-spacing:0px;word-spacing:0px;text-transform:none;writing-mode:lr-tb;direction:ltr;text-orientation:mixed;dominant-baseline:auto;text-anchor:start;white-space:normal;shape-padding:0;vector-effect:none;fill:#cc0101;fill-opacity:1;stroke:none;stroke-width:0.040519;stroke-linecap:butt;stroke-linejoin:miter;stroke-miterlimit:4;stroke-dasharray:none;stroke-dashoffset:0;stroke-opacity:1" id="path7930" inkscape:connector-curvature="0"/>
      <path d="m 122.505,218.209 0.09,0.559 q -0.582,0.116 -1.175,0.116 -1.397,0 -1.397,-1.408 v -3.734 H 119 v -0.524 l 1.023,-0.06 v -1.71 h 0.733 v 1.71 h 1.909 v 0.582 h -1.909 v 3.653 q 0,0.814 0.827,0.814 z" style="font-style:normal;font-variant:normal;font-weight:300;font-stretch:normal;font-size:11.634645px;line-height:1.25;font-family:'Exo 2';-inkscape-font-specification:'Exo 2, Light';font-variant-ligatures:normal;font-variant-position:normal;font-variant-caps:normal;font-variant-numeric:normal;font-variant-alternates:normal;font-feature-settings:normal;text-indent:0;text-align:start;text-decoration:none;text-decoration-line:none;text-decoration-style:solid;text-decoration-color:#000000;letter-spacing:0px;word-spacing:0px;text-transform:none;writing-mode:lr-tb;direction:ltr;text-orientation:mixed;dominant-baseline:auto;text-anchor:start;white-space:normal;shape-padding:0;vector-effect:none;fill:#cc0101;fill-opacity:1;stroke:none;stroke-width:0.040519;stroke-linecap:butt;stroke-linejoin:miter;stroke-miterlimit:4;stroke-dasharray:none;stroke-dashoffset:0;stroke-opacity:1" id="path7932" inkscape:connector-curvature="0"/>
      <path d="m 124.182,210.786 h 0.337 q 0.244,0 0.244,0.245 v 0.675 q 0,0.244 -0.244,0.244 h -0.337 q -0.245,0 -0.245,-0.244 v -0.675 q 0,-0.245 0.245,-0.245 z m 0.535,8.005 h -0.733 v -5.631 h 0.733 z" style="font-style:normal;font-variant:normal;font-weight:300;font-stretch:normal;font-size:11.634645px;line-height:1.25;font-family:'Exo 2';-inkscape-font-specification:'Exo 2, Light';font-variant-ligatures:normal;font-variant-position:normal;font-variant-caps:normal;font-variant-numeric:normal;font-variant-alternates:normal;font-feature-settings:normal;text-indent:0;text-align:start;text-decoration:none;text-decoration-line:none;text-decoration-style:solid;text-decoration-color:#000000;letter-spacing:0px;word-spacing:0px;text-transform:none;writing-mode:lr-tb;direction:ltr;text-orientation:mixed;dominant-baseline:auto;text-anchor:start;white-space:normal;shape-padding:0;vector-effect:none;fill:#cc0101;fill-opacity:1;stroke:none;stroke-width:0.040519;stroke-linecap:butt;stroke-linejoin:miter;stroke-miterlimit:4;stroke-dasharray:none;stroke-dashoffset:0;stroke-opacity:1" id="path7934" inkscape:connector-curvature="0"/>
      <path d="m 127.419,210.647 v 2.257 q 0,0.814 -0.08,1.21 1.129,-1.105 2.234,-1.105 1.082,0 1.559,0.686 0.488,0.686 0.488,2.269 0,1.547 -0.546,2.257 -0.536,0.71 -1.874,0.71 -1.291,0 -2.513,-0.384 v -7.9 z m 0,3.967 v 3.456 q 0.861,0.244 1.769,0.221 0.907,0 1.28,-0.524 0.384,-0.523 0.384,-1.803 0,-1.292 -0.326,-1.792 -0.314,-0.512 -1.164,-0.512 -0.453,0 -0.884,0.233 -0.419,0.221 -1.059,0.721 z" style="font-style:normal;font-variant:normal;font-weight:300;font-stretch:normal;font-size:11.634645px;line-height:1.25;font-family:'Exo 2';-inkscape-font-specification:'Exo 2, Light';font-variant-ligatures:normal;font-variant-position:normal;font-variant-caps:normal;font-variant-numeric:normal;font-variant-alternates:normal;font-feature-settings:normal;text-indent:0;text-align:start;text-decoration:none;text-decoration-line:none;text-decoration-style:solid;text-decoration-color:#000000;letter-spacing:0px;word-spacing:0px;text-transform:none;writing-mode:lr-tb;direction:ltr;text-orientation:mixed;dominant-baseline:auto;text-anchor:start;white-space:normal;shape-padding:0;vector-effect:none;fill:#cc0101;fill-opacity:1;stroke:none;stroke-width:0.040519;stroke-linecap:butt;stroke-linejoin:miter;stroke-miterlimit:4;stroke-dasharray:none;stroke-dashoffset:0;stroke-opacity:1" id="path7936" inkscape:connector-curvature="0"/>
      <path d="m 133.288,213.811 -0.07,-0.546 q 1.687,-0.256 2.711,-0.256 0.908,0 1.35,0.407 0.453,0.395 0.453,1.326 v 4.049 h -0.581 l -0.09,-0.989 q -0.419,0.419 -1.094,0.756 -0.663,0.326 -1.373,0.326 -0.745,0 -1.175,-0.396 -0.431,-0.395 -0.431,-1.128 v -0.652 q 0,-0.651 0.384,-1.012 0.384,-0.36 1.094,-0.36 h 2.525 v -0.594 q 0,-0.558 -0.268,-0.826 -0.256,-0.268 -0.931,-0.268 -1,0 -2.501,0.163 z m 0.442,2.99 v 0.489 q 0,0.943 0.989,0.943 0.512,0.01 1.14,-0.245 0.64,-0.267 1.129,-0.71 v -1.349 h -2.409 q -0.849,0.03 -0.849,0.872 z" style="font-style:normal;font-variant:normal;font-weight:300;font-stretch:normal;font-size:11.634645px;line-height:1.25;font-family:'Exo 2';-inkscape-font-specification:'Exo 2, Light';font-variant-ligatures:normal;font-variant-position:normal;font-variant-caps:normal;font-variant-numeric:normal;font-variant-alternates:normal;font-feature-settings:normal;text-indent:0;text-align:start;text-decoration:none;text-decoration-line:none;text-decoration-style:solid;text-decoration-color:#000000;letter-spacing:0px;word-spacing:0px;text-transform:none;writing-mode:lr-tb;direction:ltr;text-orientation:mixed;dominant-baseline:auto;text-anchor:start;white-space:normal;shape-padding:0;vector-effect:none;fill:#cc0101;fill-opacity:1;stroke:none;stroke-width:0.040519;stroke-linecap:butt;stroke-linejoin:miter;stroke-miterlimit:4;stroke-dasharray:none;stroke-dashoffset:0;stroke-opacity:1" id="path7938" inkscape:connector-curvature="0"/>
      <path d="m 139.837,217.546 h 0.233 q 0.279,0 0.279,0.291 v 0.745 q -0.02,0.93 -0.337,1.675 l -0.349,-0.105 q 0.09,-0.744 0.09,-1.361 -0.233,0 -0.209,-0.244 v -0.71 q 0.01,-0.291 0.29,-0.291 z" style="font-style:normal;font-variant:normal;font-weight:300;font-stretch:normal;font-size:11.634645px;line-height:1.25;font-family:'Exo 2';-inkscape-font-specification:'Exo 2, Light';font-variant-ligatures:normal;font-variant-position:normal;font-variant-caps:normal;font-variant-numeric:normal;font-variant-alternates:normal;font-feature-settings:normal;text-indent:0;text-align:start;text-decoration:none;text-decoration-line:none;text-decoration-style:solid;text-decoration-color:#000000;letter-spacing:0px;word-spacing:0px;text-transform:none;writing-mode:lr-tb;direction:ltr;text-orientation:mixed;dominant-baseline:auto;text-anchor:start;white-space:normal;shape-padding:0;vector-effect:none;fill:#cc0101;fill-opacity:1;stroke:none;stroke-width:0.040519;stroke-linecap:butt;stroke-linejoin:miter;stroke-miterlimit:4;stroke-dasharray:none;stroke-dashoffset:0;stroke-opacity:1" id="path7940" inkscape:connector-curvature="0"/>
      <path d="m 148.706,214.603 v 0.05 q 0.873,0.08 1.233,0.617 0.373,0.523 0.373,1.524 0,1.21 -0.57,1.652 -0.559,0.442 -1.967,0.442 -1.826,0 -2.827,-0.09 v -8.028 q 0.873,-0.09 2.478,-0.09 1.489,0 2.06,0.442 0.581,0.431 0.581,1.652 0,0.873 -0.325,1.327 -0.326,0.442 -1.036,0.512 z m -3.013,-0.268 h 1.896 q 0.989,-0.01 1.361,-0.314 0.373,-0.303 0.373,-1.175 0,-0.908 -0.419,-1.21 -0.407,-0.314 -1.501,-0.314 -1.28,0 -1.71,0.01 z m 0,0.593 v 3.281 q 0.977,0.02 1.989,0.02 1.059,0 1.455,-0.315 0.395,-0.314 0.395,-1.233 0,-1.012 -0.419,-1.373 -0.419,-0.36 -1.524,-0.384 z" style="font-style:normal;font-variant:normal;font-weight:300;font-stretch:normal;font-size:11.634645px;line-height:1.25;font-family:'Exo 2';-inkscape-font-specification:'Exo 2, Light';font-variant-ligatures:normal;font-variant-position:normal;font-variant-caps:normal;font-variant-numeric:normal;font-variant-alternates:normal;font-feature-settings:normal;text-indent:0;text-align:start;text-decoration:none;text-decoration-line:none;text-decoration-style:solid;text-decoration-color:#000000;letter-spacing:0px;word-spacing:0px;text-transform:none;writing-mode:lr-tb;direction:ltr;text-orientation:mixed;dominant-baseline:auto;text-anchor:start;white-space:normal;shape-padding:0;vector-effect:none;fill:#cc0101;fill-opacity:1;stroke:none;stroke-width:0.040519;stroke-linecap:butt;stroke-linejoin:miter;stroke-miterlimit:4;stroke-dasharray:none;stroke-dashoffset:0;stroke-opacity:1" id="path7942" inkscape:connector-curvature="0"/>
      <path d="m 155.41,213.009 -0.09,0.698 h -0.28 q -0.488,0 -0.988,0.209 -0.501,0.198 -1.28,0.663 v 4.212 h -0.745 v -5.631 h 0.57 l 0.08,0.931 q 1.384,-1.082 2.489,-1.082 z" style="font-style:normal;font-variant:normal;font-weight:300;font-stretch:normal;font-size:11.634645px;line-height:1.25;font-family:'Exo 2';-inkscape-font-specification:'Exo 2, Light';font-variant-ligatures:normal;font-variant-position:normal;font-variant-caps:normal;font-variant-numeric:normal;font-variant-alternates:normal;font-feature-settings:normal;text-indent:0;text-align:start;text-decoration:none;text-decoration-line:none;text-decoration-style:solid;text-decoration-color:#000000;letter-spacing:0px;word-spacing:0px;text-transform:none;writing-mode:lr-tb;direction:ltr;text-orientation:mixed;dominant-baseline:auto;text-anchor:start;white-space:normal;shape-padding:0;vector-effect:none;fill:#cc0101;fill-opacity:1;stroke:none;stroke-width:0.040519;stroke-linecap:butt;stroke-linejoin:miter;stroke-miterlimit:4;stroke-dasharray:none;stroke-dashoffset:0;stroke-opacity:1" id="path7944" inkscape:connector-curvature="0"/>
      <path d="m 156.603,213.811 -0.07,-0.546 q 1.687,-0.256 2.711,-0.256 0.907,0 1.349,0.407 0.454,0.395 0.454,1.326 v 4.049 h -0.582 l -0.09,-0.989 q -0.419,0.419 -1.093,0.756 -0.663,0.326 -1.373,0.326 -0.745,0 -1.175,-0.396 -0.431,-0.395 -0.431,-1.128 v -0.652 q 0,-0.651 0.384,-1.012 0.384,-0.36 1.094,-0.36 h 2.525 v -0.594 q 0,-0.558 -0.268,-0.826 -0.256,-0.268 -0.931,-0.268 -1,0 -2.501,0.163 z m 0.442,2.99 v 0.489 q 0,0.943 0.989,0.943 0.512,0.01 1.14,-0.245 0.64,-0.267 1.129,-0.71 v -1.349 h -2.409 q -0.849,0.03 -0.849,0.872 z" style="font-style:normal;font-variant:normal;font-weight:300;font-stretch:normal;font-size:11.634645px;line-height:1.25;font-family:'Exo 2';-inkscape-font-specification:'Exo 2, Light';font-variant-ligatures:normal;font-variant-position:normal;font-variant-caps:normal;font-variant-numeric:normal;font-variant-alternates:normal;font-feature-settings:normal;text-indent:0;text-align:start;text-decoration:none;text-decoration-line:none;text-decoration-style:solid;text-decoration-color:#000000;letter-spacing:0px;word-spacing:0px;text-transform:none;writing-mode:lr-tb;direction:ltr;text-orientation:mixed;dominant-baseline:auto;text-anchor:start;white-space:normal;shape-padding:0;vector-effect:none;fill:#cc0101;fill-opacity:1;stroke:none;stroke-width:0.040519;stroke-linecap:butt;stroke-linejoin:miter;stroke-miterlimit:4;stroke-dasharray:none;stroke-dashoffset:0;stroke-opacity:1" id="path7946" inkscape:connector-curvature="0"/>
      <path d="m 167.282,218.174 v 0.617 h -4.723 v -0.617 l 3.839,-4.409 h -3.793 v -0.605 h 4.631 v 0.605 l -3.828,4.409 z" style="font-style:normal;font-variant:normal;font-weight:300;font-stretch:normal;font-size:11.634645px;line-height:1.25;font-family:'Exo 2';-inkscape-font-specification:'Exo 2, Light';font-variant-ligatures:normal;font-variant-position:normal;font-variant-caps:normal;font-variant-numeric:normal;font-variant-alternates:normal;font-feature-settings:normal;text-indent:0;text-align:start;text-decoration:none;text-decoration-line:none;text-decoration-style:solid;text-decoration-color:#000000;letter-spacing:0px;word-spacing:0px;text-transform:none;writing-mode:lr-tb;direction:ltr;text-orientation:mixed;dominant-baseline:auto;text-anchor:start;white-space:normal;shape-padding:0;vector-effect:none;fill:#cc0101;fill-opacity:1;stroke:none;stroke-width:0.040519;stroke-linecap:butt;stroke-linejoin:miter;stroke-miterlimit:4;stroke-dasharray:none;stroke-dashoffset:0;stroke-opacity:1" id="path7948" inkscape:connector-curvature="0"/>
      <path d="m 169.084,210.786 h 0.338 q 0.244,0 0.244,0.245 v 0.675 q 0,0.244 -0.244,0.244 h -0.338 q -0.244,0 -0.244,-0.244 v -0.675 q 0,-0.245 0.244,-0.245 z m 0.535,8.005 h -0.733 v -5.631 h 0.733 z" style="font-style:normal;font-variant:normal;font-weight:300;font-stretch:normal;font-size:11.634645px;line-height:1.25;font-family:'Exo 2';-inkscape-font-specification:'Exo 2, Light';font-variant-ligatures:normal;font-variant-position:normal;font-variant-caps:normal;font-variant-numeric:normal;font-variant-alternates:normal;font-feature-settings:normal;text-indent:0;text-align:start;text-decoration:none;text-decoration-line:none;text-decoration-style:solid;text-decoration-color:#000000;letter-spacing:0px;word-spacing:0px;text-transform:none;writing-mode:lr-tb;direction:ltr;text-orientation:mixed;dominant-baseline:auto;text-anchor:start;white-space:normal;shape-padding:0;vector-effect:none;fill:#cc0101;fill-opacity:1;stroke:none;stroke-width:0.040519;stroke-linecap:butt;stroke-linejoin:miter;stroke-miterlimit:4;stroke-dasharray:none;stroke-dashoffset:0;stroke-opacity:1" id="path7950" inkscape:connector-curvature="0"/>
      <path d="m 172.357,210.647 v 6.748 q 0,0.814 0.826,0.814 h 0.593 l 0.08,0.559 q -0.315,0.116 -0.931,0.116 -0.605,0 -0.954,-0.349 -0.349,-0.361 -0.349,-1.001 v -6.887 z" style="font-style:normal;font-variant:normal;font-weight:300;font-stretch:normal;font-size:11.634645px;line-height:1.25;font-family:'Exo 2';-inkscape-font-specification:'Exo 2, Light';font-variant-ligatures:normal;font-variant-position:normal;font-variant-caps:normal;font-variant-numeric:normal;font-variant-alternates:normal;font-feature-settings:normal;text-indent:0;text-align:start;text-decoration:none;text-decoration-line:none;text-decoration-style:solid;text-decoration-color:#000000;letter-spacing:0px;word-spacing:0px;text-transform:none;writing-mode:lr-tb;direction:ltr;text-orientation:mixed;dominant-baseline:auto;text-anchor:start;white-space:normal;shape-padding:0;vector-effect:none;fill:#cc0101;fill-opacity:1;stroke:none;stroke-width:0.040519;stroke-linecap:butt;stroke-linejoin:miter;stroke-miterlimit:4;stroke-dasharray:none;stroke-dashoffset:0;stroke-opacity:1" id="path7952" inkscape:connector-curvature="0"/>
    </g>
    <path style="fill:#edd400;stroke-width:0.040238" d="m 190.571,206.431 c 0.06,-0.1 0.121,-0.211 0.192,-0.318 0.119,-0.17 0.481,-0.679 0.768,-1.097 0.725,-0.965 1.692,-2.115 2.786,-3.297 1.008,-1.09 1.28,-1.317 2.669,-2.231 1.217,-0.8 1.643,-1.127 2.674,-2.048 1.507,-1.346 2.807,-2.313 4.328,-3.224 2.557,-1.535 5.563,-2.717 8.183,-3.226 0.334,-0.08 1.194,-0.285 1.909,-0.487 1.268,-0.361 1.309,-0.367 1.735,-0.347 0.241,0 0.64,0.06 0.889,0.109 0.413,0.09 0.484,0.108 0.855,0.32 0.364,0.209 0.418,0.241 0.546,0.438 0.188,0.267 0.274,0.604 0.259,0.999 -0.03,0.666 -0.299,1.353 -0.938,2.385 -0.683,1.101 -1.978,2.737 -2.297,2.902 l -0.173,0.1 0.206,-0.04 c 0.112,-0.03 0.929,-0.209 1.814,-0.417 0.884,-0.207 1.812,-0.423 2.065,-0.48 5.878,-1.308 13.402,-1.023 20.677,0.787 3.121,0.774 5.898,1.743 8.577,2.991 1.063,0.494 3.41,1.851 4.164,2.403 1.736,1.276 2.852,2.455 2.935,3.109 0.03,0.232 -0.108,0.516 -0.291,0.62 -0.283,0.148 -0.272,0.152 -1.966,-0.791 -2.025,-1.125 -3.457,-1.818 -5.175,-2.503 -6.84,-2.726 -15.882,-4.305 -23.162,-4.048 -2.188,0.08 -3.5,0.219 -6.05,0.667 -2.079,0.364 -3.506,0.569 -7.233,1.036 -3.402,0.431 -4.468,0.631 -5.147,0.973 -0.869,0.442 -3.443,1.772 -4.592,2.372 -4.742,2.493 -6.765,3.713 -8.772,5.291 -0.302,0.236 -0.525,0.428 -0.561,0.458 -0.117,-0.08 -0.252,-0.225 -0.281,-0.509 -0.03,-0.334 0.624,-1.536 1.132,-2.414 h 0.03 v -0.03 c 0.242,-0.421 0.414,-0.719 0.474,-0.807 0.08,-0.03 0.06,-0.1 0.06,-0.1 0,0 -0.05,0.09 -0.06,0.1 -0.03,0 -0.07,0 -0.114,0 -0.179,-0.03 -2.282,0.483 -2.946,0.645 0.608,-0.23 1.696,-0.514 2.339,-0.603 0.313,-0.04 0.578,-0.09 0.578,-0.09 0.02,-0.03 -0.4,0 -0.678,0.05 -0.154,0.03 -0.794,0.182 -1.418,0.345 l -1.137,0.299 z" id="path8634" inkscape:connector-curvature="0"/>
    <path style="opacity:1;vector-effect:none;fill:#4e9a06;fill-opacity:1;stroke:none;stroke-width:0.313176;stroke-linecap:butt;stroke-linejoin:miter;stroke-miterlimit:4;stroke-dasharray:none;stroke-dashoffset:0;stroke-opacity:1" d="m 228.683,174.448 c -0.147,0 -0.306,0.03 -0.493,0.08 -0.406,0.113 -0.72,0.304 -1.086,0.664 -0.205,0.202 -0.286,0.316 -0.668,0.977 -0.487,0.845 -0.658,1.241 -1.216,2.824 -0.174,0.503 -0.34,0.951 -0.366,0.994 -0.03,0.05 -0.215,0.134 -0.551,0.241 -1.512,0.473 -3.421,1.183 -5.2,1.938 -8.899,3.773 -17.727,9.7 -23.727,15.929 -1.892,1.965 -3.226,3.655 -4.362,5.526 -0.951,1.563 -1.473,2.843 -1.547,3.787 -0.02,0.244 0,0.292 0.09,0.395 0.179,0.192 0.332,0.193 0.601,0 0.327,-0.232 0.76,-0.437 1.298,-0.611 0.565,-0.184 1.577,-0.386 1.554,-0.31 -0.02,0.03 -0.195,0.273 -0.418,0.539 -0.498,0.604 -0.859,1.148 -0.958,1.453 -0.107,0.314 -0.117,0.714 -0.03,0.983 0.1,0.286 0.286,0.591 0.434,0.677 0.291,0.168 0.524,0.09 2.989,-1.086 3.953,-1.873 6.404,-2.881 9.373,-3.857 1.161,-0.381 3.455,-1.015 4.679,-1.29 6.134,-1.381 12.39,-1.62 19.244,-0.738 5.113,0.656 10.296,1.837 19.625,4.474 3.813,1.078 4.96,1.381 5.821,1.546 0.501,0.1 0.66,0.109 0.83,0.08 0.142,-0.03 0.162,-0.06 0.108,-0.131 h 0.02 c -0.371,-0.46 -4.438,-2.197 -8.793,-3.754 -6.469,-2.316 -11.957,-3.745 -17.284,-4.502 -2.935,-0.415 -6.025,-0.609 -8.813,-0.556 -7.695,0.152 -14.96,2.062 -21.646,5.691 -1.973,1.069 -4.295,2.593 -5.336,3.495 -0.14,0.124 -0.261,0.225 -0.267,0.227 0,0 -0.05,-0.05 -0.09,-0.113 -0.04,-0.07 -0.108,-0.125 -0.139,-0.129 -0.08,0 -0.153,-0.531 -0.123,-0.765 0.02,-0.217 0.203,-0.5 0.662,-1.08 0.252,-0.318 0.489,-0.666 0.676,-0.983 l 0.286,-0.495 -0.03,-0.208 c -0.03,-0.352 -0.03,-0.35 -0.641,-0.265 -1.066,0.148 -2.127,0.441 -2.799,0.769 l -0.391,0.19 0.311,-0.47 c 1.81,-2.807 3.877,-5.123 7.182,-8.052 6.25,-5.532 14.55,-10.754 22.722,-14.293 2.68,-1.161 6.122,-2.387 8.3,-2.958 l 0.464,-0.122 -0.211,0.499 c -0.217,0.51 -0.274,0.794 -0.224,1.019 0.1,0.414 0.64,0.665 1.028,0.47 0.08,-0.04 0.262,-0.169 0.391,-0.278 l 0.236,-0.194 -0.09,-0.119 c -0.08,-0.112 -0.08,-0.141 0,-0.34 0.04,-0.124 0.221,-0.518 0.373,-0.891 0.873,-2.11 1.902,-4.025 2.517,-4.683 0.645,-0.692 1.39,-0.772 1.957,-0.217 0.672,0.657 1.174,2.072 1.411,3.988 0.02,0.226 0.06,0.418 0.07,0.423 0.02,0.02 0.34,-0.03 0.735,-0.07 l 0.719,-0.08 -0.07,-0.523 c -0.03,-0.292 -0.06,-0.54 -0.05,-0.556 0.02,-0.03 1.068,-0.1 1.892,-0.108 1.876,-0.03 4.002,0.127 5.836,0.435 0.374,0.07 1.23,0.231 1.905,0.375 0.674,0.144 1.288,0.253 1.363,0.242 0.128,-0.02 0.134,-0.03 0.09,-0.1 -0.07,-0.115 -0.867,-0.597 -1.379,-0.833 -2.433,-1.115 -5.807,-1.757 -9.293,-1.769 h -0.769 c -0.04,0 -0.114,-0.157 -0.201,-0.411 -0.284,-0.817 -0.753,-1.613 -1.208,-2.058 -0.291,-0.28 -0.837,-0.608 -1.178,-0.707 -0.462,-0.13 -0.871,-0.124 -1.38,0 -0.914,0.25 -1.541,0.789 -2.289,1.985 l -0.335,0.53 -0.179,-0.667 c -0.288,-1.074 -0.606,-1.561 -1.231,-1.887 -0.268,-0.137 -0.483,-0.199 -0.728,-0.194 z m -3.715,9.873 c -1.136,-0.02 -2.303,0.556 -2.793,1.351 v 0 c -0.14,0.226 -0.215,0.471 -0.237,0.724 -0.04,0.754 0.69,1.367 1.723,1.464 1.046,0.09 2.214,-0.351 2.839,-1.073 0.229,-0.262 0.261,-0.31 0.358,-0.569 0.148,-0.398 0.09,-0.833 -0.14,-1.15 -0.184,-0.25 -0.617,-0.536 -0.972,-0.633 -0.25,-0.07 -0.51,-0.105 -0.772,-0.109 z m -1.211,1.471 c 0.648,0.04 0.958,0.577 0.528,0.901 -0.151,0.112 -0.507,0.199 -0.786,0.199 -0.458,-0.01 -0.77,-0.253 -0.77,-0.571 0,-0.06 0,-0.109 0.02,-0.152 v 0 c 0.01,-0.04 0.04,-0.08 0.108,-0.129 0.161,-0.153 0.57,-0.271 0.894,-0.25 z" id="path8068" inkscape:connector-curvature="0"/>
    <path style="fill:none;stroke:#000000;stroke-width:0.221729px;stroke-linecap:butt;stroke-linejoin:miter;stroke-opacity:1" d="m 191.702,206.9 c 0.02,0 0.06,0 0.09,0" id="path8607" inkscape:connector-curvature="0"/>
    <path style="opacity:1;vector-effect:none;fill:#cc0101;fill-opacity:1;stroke-width:0.040238;stroke-linecap:butt;stroke-linejoin:miter;stroke-miterlimit:4;stroke-dasharray:none;stroke-dashoffset:0;stroke-opacity:1" d="m 128.837,186.306 c 0.123,-0.214 0.255,-0.441 0.401,-0.694 0.925,-1.518 1.824,-2.621 3.167,-3.865 1.393,-1.286 3.451,-2.654 5.17,-3.43 2.714,-1.226 5.517,-1.747 8.276,-1.533 6.774,0.521 12.483,3.786 15.024,8.59 0.546,1.034 0.862,1.834 1.156,2.93 0.306,1.142 0.449,2.152 0.46,3.277 0.02,1.356 -0.265,3.194 -0.724,4.742 -0.957,3.231 -2.718,5.534 -5.18,6.775 -2.146,1.081 -4.701,1.314 -7.433,0.675 -1.136,-0.263 -2.182,-0.698 -3.195,-1.32 -1.098,-0.683 -1.872,-1.367 -2.671,-2.373 -0.388,-0.491 -0.965,-1.405 -1.261,-1.996 -1.046,-2.091 -1.572,-4.735 -1.413,-7.095 0.04,-0.632 0.202,-1.471 0.337,-1.766 l 0.1,-0.21 0.03,0.113 c 0.02,0.06 0.03,0.424 0.03,0.809 0,2.372 0.418,4.462 1.249,6.403 0.625,1.452 1.6,2.854 2.643,3.792 0.658,0.59 1.699,1.259 2.455,1.579 2.32,0.982 5.058,1.132 7.196,0.393 1.465,-0.507 2.598,-1.336 3.565,-2.605 0.467,-0.614 1.057,-1.698 1.343,-2.478 0.664,-1.811 1.036,-4.08 0.941,-5.738 -0.172,-2.968 -1.609,-5.898 -3.919,-7.994 -2.59,-2.348 -6.511,-3.875 -10.832,-4.216 -3.666,-0.289 -7.507,0.999 -10.791,3.618 -1.559,1.243 -2.664,2.472 -3.608,4.011 -1.247,2.025 -1.904,4.183 -2.046,6.666 -0.11,1.926 0.1,3.707 0.674,5.756 1.486,5.301 5.315,10.418 10.513,14.056 7.578,5.306 17.236,7.174 27.245,5.275 1.603,-0.305 4.086,-0.938 5.615,-1.426 3.788,-1.218 7.966,-3.068 11.518,-5.101 2.084,-1.191 3.625,-2.191 6.175,-4.007 0.578,-0.414 0.913,-0.647 1.074,-0.773 l 0.234,-0.05 0.446,-0.06 -0.1,0.151 c -0.04,0.03 -0.08,0.08 -0.113,0.11 -4.026,3.935 -9.413,7.412 -15.584,10.052 -9.457,4.048 -19.003,4.875 -27.741,2.407 -1.863,-0.526 -3.595,-1.186 -5.694,-2.165 -0.717,-0.336 -3.459,-1.92 -4.166,-2.404 -3.622,-2.501 -6.467,-5.38 -8.622,-8.724 -2.079,-3.225 -3.317,-6.503 -3.741,-9.91 -0.356,-2.853 -0.04,-5.738 0.898,-8.259 0.295,-0.789 0.539,-1.339 0.9,-1.987 z" id="path8638" inkscape:connector-curvature="0"/>
    <path style="fill:#fd9855;stroke-width:0.040238" d="m 192.519,203.608 c 0.916,-1.309 2.161,-2.479 2.925,-3.145 -1.108,1.078 -2.077,2.12 -2.925,3.145 z" id="path8632" inkscape:connector-curvature="0"/>
    <path inkscape:connector-curvature="0" id="path7671" style="font-style:normal;font-variant:normal;font-weight:bold;font-stretch:normal;font-size:38.019257px;line-height:1.25;font-family:'Exo 2';-inkscape-font-specification:'Exo 2, Bold';font-variant-ligatures:normal;font-variant-caps:normal;font-variant-numeric:normal;font-feature-settings:normal;text-align:start;letter-spacing:-2.495012px;word-spacing:0px;writing-mode:lr-tb;text-anchor:start;opacity:1;vector-effect:none;fill:#1086a5;fill-opacity:1;stroke:none;stroke-width:0.313177;stroke-linecap:butt;stroke-linejoin:miter;stroke-miterlimit:4;stroke-dasharray:none;stroke-dashoffset:0;stroke-opacity:1" d="m 140.408,196.946 0.521,4.532 q -3.612,1.123 -8.865,1.123 -6.42,0 -9.027,-3.209 -2.607,-3.209 -2.607,-11.113 0,-7.901 2.607,-11.111 2.607,-3.21 9.027,-3.21 4.653,0 8.304,0.923 l -0.524,4.573 q -3.248,-0.199 -7.78,-0.199 -3.009,0 -4.132,1.924 -1.083,1.886 -1.083,7.1 0,5.216 1.083,7.141 1.123,1.886 4.132,1.886 5.575,0 8.344,-0.36 z"/>
    <g aria-label="19" style="font-style:normal;font-variant:normal;font-weight:bold;font-stretch:normal;font-size:13.324417px;line-height:1.25;font-family:'Exo 2';-inkscape-font-specification:'Exo 2, Bold';font-variant-ligatures:normal;font-variant-caps:normal;font-variant-numeric:normal;font-feature-settings:normal;text-align:start;letter-spacing:0px;word-spacing:0px;writing-mode:lr-tb;text-anchor:start;opacity:1;vector-effect:none;fill:#edd400;fill-opacity:1;stroke:none;stroke-width:0.037371;stroke-linecap:butt;stroke-linejoin:miter;stroke-miterlimit:4;stroke-dasharray:none;stroke-dashoffset:0;stroke-opacity:1" id="text8734" transform="matrix(1.0767,0,0,1.0767,-8.47998,8.07788)">
      <path d="m 198.763,162.925 h -2.025 v -6.476 q 0,-0.586 0.08,-0.999 l -2.146,0.56 -0.239,-1.359 2.305,-0.92 h 2.025 z" style="font-style:normal;font-variant:normal;font-weight:bold;font-stretch:normal;font-size:13.324417px;font-family:'Exo 2';-inkscape-font-specification:'Exo 2, Bold';font-variant-ligatures:normal;font-variant-caps:normal;font-variant-numeric:normal;font-feature-settings:normal;text-align:start;writing-mode:lr-tb;text-anchor:start;vector-effect:none;fill:#edd400;fill-opacity:1;stroke:none;stroke-width:0.037371;stroke-linecap:butt;stroke-linejoin:miter;stroke-miterlimit:4;stroke-dasharray:none;stroke-dashoffset:0;stroke-opacity:1" id="path8765" inkscape:connector-curvature="0"/>
      <path d="m 199.899,162.845 0.12,-1.346 q 0.746,0.03 2.225,0.03 1.039,0 1.426,-0.493 0.4,-0.506 0.453,-1.932 -0.746,0.693 -2.039,0.693 -2.571,0 -2.571,-2.918 -0.01,-1.759 0.706,-2.532 0.719,-0.773 2.531,-0.773 0.867,0 1.426,0.147 0.573,0.133 0.96,0.44 0.386,0.293 0.586,0.866 0.2,0.573 0.28,1.319 0.08,0.733 0.08,1.892 0,1.545 -0.2,2.491 -0.187,0.947 -0.68,1.479 -0.493,0.52 -1.172,0.707 -0.667,0.173 -1.773,0.173 -1.385,0 -2.358,-0.24 z m 1.519,-6.009 q -0.01,0.813 0.253,1.159 0.28,0.333 1.013,0.333 0.693,0 1.452,-0.506 0,-1.719 -0.24,-2.212 -0.226,-0.493 -1.159,-0.493 -0.826,0 -1.079,0.386 -0.253,0.387 -0.24,1.333 z" style="font-style:normal;font-variant:normal;font-weight:bold;font-stretch:normal;font-size:13.324417px;font-family:'Exo 2';-inkscape-font-specification:'Exo 2, Bold';font-variant-ligatures:normal;font-variant-caps:normal;font-variant-numeric:normal;font-feature-settings:normal;text-align:start;writing-mode:lr-tb;text-anchor:start;vector-effect:none;fill:#edd400;fill-opacity:1;stroke:none;stroke-width:0.037371;stroke-linecap:butt;stroke-linejoin:miter;stroke-miterlimit:4;stroke-dasharray:none;stroke-dashoffset:0;stroke-opacity:1" id="path8767" inkscape:connector-curvature="0"/>
    </g>
  </g>
</svg>